<?xml version="1.0" encoding="UTF-8"?>
<svg width="20px" height="20px" viewBox="0 0 20 20" version="1.1" xmlns="http://www.w3.org/2000/svg" xmlns:xlink="http://www.w3.org/1999/xlink">
    <defs>
        <polygon id="path-1" points="10.22 14.5068723 10.22 0.380769677 0.796293589 0.380769677 0.796293589 14.5068723 10.22 14.5068723"></polygon>
    </defs>
    <g id="Symbols" stroke="none" stroke-width="1" fill="none" fill-rule="evenodd">
        <g id="ICON/BLUE/SIGN">
            <g id="Page-1">
                <path d="M10.9797895,3.51084211 L4.25663158,3.51084211 C3.76294737,3.51084211 3.36084211,3.91294737 3.36084211,4.40557895 C3.36084211,4.90242105 3.76294737,5.30347368 4.25663158,5.30347368 L10.9797895,5.30347368 C11.4734737,5.30347368 11.8745263,4.90242105 11.8745263,4.40557895 C11.8745263,3.91294737 11.4734737,3.51084211 10.9797895,3.51084211" id="Fill-1" fill="#37B7E0"></path>
                <path d="M11.8749474,7.76810526 C11.8749474,7.27231579 11.4728421,6.87126316 10.9802105,6.87126316 L4.256,6.87126316 C3.76231579,6.87126316 3.36126316,7.27231579 3.36126316,7.76810526 C3.36126316,8.26389474 3.76231579,8.66494737 4.256,8.66494737 L10.9802105,8.66494737 C11.4728421,8.66494737 11.8749474,8.26389474 11.8749474,7.76810526" id="Fill-3" fill="#37B7E0"></path>
                <path d="M7.61778947,12.0247368 C8.11357895,12.0247368 8.51463158,11.6226316 8.51463158,11.13 C8.51463158,10.6331579 8.11357895,10.2321053 7.61778947,10.2321053 L4.25673684,10.2321053 C3.76305263,10.2321053 3.36094737,10.6331579 3.36094737,11.13 C3.36094737,11.6226316 3.76305263,12.0247368 4.25673684,12.0247368 L7.61778947,12.0247368 Z" id="Fill-5" fill="#37B7E0"></path>
                <path d="M13.4442105,15.6936842 L13.4442105,17.9242105 L1.79157895,17.9242105 L1.79157895,1.79263158 L5.06424753,1.79263158 L13.4442105,1.79263158 L13.4442105,5.33473684 L15.2368421,2.22842105 L15.2368421,0.894736842 C15.2368421,0.401052632 14.8347368,0 14.3389474,0 L0.894736842,0 C0.401052632,0 0,0.401052632 0,0.894736842 L0,18.8221053 C0,19.3168421 0.401052632,19.7189474 0.894736842,19.7189474 L14.3389474,19.7189474 C14.8347368,19.7189474 15.2368421,19.3168421 15.2368421,18.8221053 L15.2368421,13.8831579 L14.8084211,14.6221053 C14.7031579,14.8042105 14.5557895,14.96 14.3842105,15.0726316 L13.4442105,15.6936842 Z" id="Fill-7" fill="#37B7E0"></path>
                <g id="Group-11" transform="translate(9.473684, 1.824211)">
                    <g id="Clip-10"></g>
                    <path d="M10.2097895,2.32589474 C10.1918947,2.24589474 10.0013684,1.52063158 8.86242105,0.863789474 C7.72136842,0.205894737 7.00031579,0.402736842 6.92031579,0.426947368 C6.814,0.461684211 6.72347368,0.533263158 6.66557895,0.632210526 L1.06557895,10.3332632 C1.03084211,10.3932632 1.00978947,10.4606316 1.00557895,10.5301053 L0.797157895,14.0311579 C0.786631579,14.2016842 0.872947368,14.3606316 1.01821053,14.4469474 C1.16557895,14.5311579 1.34768421,14.5269474 1.48978947,14.4322105 L4.41610526,12.5006316 C4.47610526,12.4616842 4.52347368,12.4111579 4.55821053,12.3511579 L10.1603158,2.64694737 C10.2161053,2.55115789 10.234,2.43642105 10.2097895,2.32589474 L10.2097895,2.32589474 Z M2.62031579,12.8816842 C2.47084211,12.7616842 2.30031579,12.648 2.11821053,12.5437895 C1.93821053,12.4374737 1.754,12.3490526 1.57505263,12.2795789 L1.63926316,11.2311579 C1.87294737,11.2616842 2.21926316,11.3553684 2.65926316,11.6101053 C3.09715789,11.8637895 3.354,12.1153684 3.49715789,12.3027368 L2.62031579,12.8816842 Z" id="Fill-9" fill="#37B7E0"></path>
                </g>
                <path d="M6.24747368,16.1666316 C6.278,16.3466316 6.48536842,16.4024211 6.62431579,16.4592632 C6.758,16.5171579 6.91905263,16.4087368 7.02957895,16.3550526 C7.71378947,16.0234737 8.64010526,16.4129474 9.37378947,16.4129474 C9.80536842,16.4129474 9.80536842,15.7403158 9.37378947,15.7403158 C8.51905263,15.7403158 7.80852632,15.5255789 6.96010526,15.6645263 C6.96010526,15.6150526 6.94431579,15.5497895 6.89063158,15.4592632 C6.73273684,15.1897895 6.53063158,15.1118947 6.32957895,15.1445263 C6.31484211,15.114 6.30326316,15.0813684 6.28431579,15.0476842 C6.23168421,14.9624211 6.15694737,14.9192632 6.07378947,14.9003158 C6.31063158,14.4887368 6.46221053,14.0529474 6.30642105,13.6982105 C6.26010526,13.5918947 6.12431579,13.5371579 6.018,13.5329474 C5.56957895,13.5161053 5.18431579,13.9876842 4.89589474,14.2697895 C4.17273684,14.9771579 3.53694737,15.7792632 2.92010526,16.5803158 C2.65589474,16.9224211 3.24010526,17.2561053 3.50010526,16.9182105 C4.04747368,16.2097895 4.62536842,15.5234737 5.24536842,14.8803158 C5.09589474,15.1266316 4.93694737,15.3676842 4.77063158,15.5992632 C4.53063158,15.9697895 5.10221053,16.2834737 5.35063158,15.9392632 C5.40957895,15.8497895 5.48536842,15.7834737 5.56747368,15.7276842 C5.55063158,15.7687368 5.53484211,15.8097895 5.51694737,15.8518947 C5.518,15.8518947 5.518,15.8529474 5.52010526,15.8529474 C5.50642105,15.8792632 5.49378947,15.9066316 5.48326316,15.9308421 C5.33168421,16.3076842 5.89273684,16.4803158 6.098,16.1908421 C6.14957895,16.1171579 6.19589474,16.0392632 6.23905263,15.9582105 C6.238,16.0150526 6.23589474,16.0887368 6.24747368,16.1666316" id="Fill-12" fill="#37B7E0"></path>
            </g>
        </g>
    </g>
</svg>
