<?xml version="1.0" encoding="UTF-8"?>
<svg width="24px" height="19px" viewBox="0 0 24 19" version="1.1" xmlns="http://www.w3.org/2000/svg" xmlns:xlink="http://www.w3.org/1999/xlink">
    <g stroke="none" stroke-width="1" fill="none" fill-rule="evenodd">
        <g transform="translate(-1192.000000, -11.000000)" >
            <g transform="translate(1192.000000, 11.000000)">
                <path d="M1.92883134,4.91040936 L9.15165692,4.91040936 L9.15165692,5.46296067 L9.15174974,5.4629148 L9.15174974,11.984644 L9.15165692,11.9845981 L9.15165692,12.5370577 L7.88664253,12.5370577 L7.88664253,12.5371494 L3.50128098,12.5371494 L3.50128098,12.5370577 L1.92883134,12.5370577 L1.92883134,11.2969705 L0.0463937622,11.2969705 L0.0463937622,6.15054237 L1.92883134,6.15054237 L1.92883134,4.91040936 Z M3.80869767,13.9322876 L8.19401281,13.9322876 L9.29848696,18.944832 L4.91307899,18.944832 L3.80869767,13.9322876 Z M20.3042467,0 L20.3042467,17.4474946 C17.3142254,15.1319803 14.2623828,13.7278294 12.2076163,12.9531476 C11.6052307,12.7260635 11.0524134,12.5388373 10.563506,12.3857356 L10.563506,5.06185071 C11.0524134,4.90865726 11.6052307,4.72147689 12.2076163,4.49434698 C14.2623828,3.71966518 17.3142254,2.31556014 20.3042467,0 Z M22.0901792,5.46846004 C23.0381973,5.46846004 23.8095238,6.23066621 23.8095238,7.16753125 L23.8095238,10.2799266 C23.8095238,11.2168375 23.0381973,11.9790437 22.0901792,11.9790437 L21.7159566,11.9790437 L21.7159566,5.46846004 L22.0901792,5.46846004 Z"></path>
            </g>
        </g>
    </g>
</svg>