{
    "offset":0,
    "limit":4,
    "sortBy":[
        {
            "field":"ID",
            "direction":"ASC"
        }
    ],
    "variables":{
        "offset":0,
        "limit":4,
        "sortBy":[
            {
                "field":"ID",
                "direction":"ASC"
            }
        ]
    },
    "loading":false,
    "items":[
        {
            "ID":"1",
            "Date":"2017-09-10 11:16:22",
            "userId": "1",
            "Bid": 3456788
        },
        {
            "ID":"2",
            "Date":"2017-10-16 09:16:22",
            "userId": "8",
            "Bid": 3456788
        },
        {
            "ID":"3",
            "Date":"2017-09-19 14:16:22",
            "userId": "7",
            "Bid": 3456788
        },
        {
            "ID":"4",
            "Date":"2017-11-25 17:16:22",
            "userId": "6",
            "Bid": 7865645
        },
        {
            "ID":"5",
            "Date":"2017-11-10 13:32:22",
            "userId": "2",
            "Bid": 340000
        },
        {
            "ID":"6",
            "Date":"2017-11-29 21:16:22",
            "userId": "9",
            "Bid": 600000
        },
        {
            "ID":"7",
            "Date":"2017-09-30 05:16:22",
            "userId": "4",
            "Bid": 1000000
        },
        {
            "ID":"8",
            "Date":"2017-10-31 11:55:22",
            "userId": "5",
            "Bid": 978657
        }
    ],
    "canCreate":true,
    "pageInfo":{
        "hasNextPage":true,
        "hasPreviousPage":false,
        "totalCount":5,
        "__typename":"PageInfo"
    }
}
