<?xml version="1.0" encoding="UTF-8"?>
<svg width="19px" height="18px" viewBox="0 0 19 18" version="1.1" xmlns="http://www.w3.org/2000/svg" xmlns:xlink="http://www.w3.org/1999/xlink">
    <g transform="translate(-850.000000, -80.000000)">
        <g transform="translate(514.000000, 80.000000)">
            <g transform="translate(336.580488, 0.000000)">
                <path d="M15.6421298,15.9961 L14.4313054,16.3221 L13.5461712,15.4191 L13.8699054,14.1841 L15.0807298,13.8531 L15.9648859,14.7581 L15.6421298,15.9961 Z M3.08593951,16.3221 L1.87413707,15.9921 L1.55138098,14.7541 L2.43553707,13.8501 L3.64636146,14.1811 L3.96911756,15.4191 L3.08593951,16.3221 Z M14.5946395,12.6771 L10.9582541,8.9551 L13.9100054,5.9381 C14.8675151,6.1671 15.9150054,5.9061 16.6641907,5.1401 C17.4808615,4.3051 17.7048346,3.1001 17.3644737,2.0511 L15.9717322,3.4701 C15.4817298,3.9751 14.6689712,3.9571 14.1564737,3.4331 C13.6469102,2.9111 13.6312615,2.0831 14.1212639,1.5791 L15.5100932,0.1591 C14.48412,-0.1929 13.3085054,0.0361 12.4879224,0.8741 C11.7436273,1.6361 11.4873785,2.7071 11.7103737,3.6871 L8.76057854,6.7081 L5.80882732,3.6911 C6.02986634,2.7111 5.77361756,1.6401 5.02736634,0.8741 C4.21069561,0.0361 3.03214683,-0.1929 2.00617366,0.1591 L3.39500293,1.5791 C3.88500537,2.0831 3.87033463,2.9111 3.35881512,3.4331 C2.84827366,3.9571 2.03844927,3.9711 1.54453463,3.4701 L0.155705366,2.0511 C-0.188567805,3.1001 0.0354053659,4.3051 0.855010244,5.1401 C1.60223951,5.9061 2.64875171,6.1641 3.61115171,5.9381 L6.56192488,8.9551 L2.92553951,12.6731 C2.26144439,12.6271 1.58756878,12.8511 1.08191756,13.3681 C0.15277122,14.3181 0.15277122,15.8571 1.08191756,16.8061 C2.01008585,17.7521 3.51530293,17.7521 4.44249317,16.8061 C4.94521024,16.2891 5.16722732,15.5961 5.12419317,14.9211 L8.76057854,11.2031 L12.3969639,14.9211 C12.3500176,15.6001 12.5700785,16.2891 13.0786639,16.8091 C14.003898,17.7561 15.5100932,17.7561 16.4363054,16.8091 C17.3674078,15.8571 17.3674078,14.3181 16.4363054,13.3701 C15.9326102,12.8511 15.2548224,12.6301 14.5946395,12.6771 L14.5946395,12.6771 Z" ></path>
            </g>
        </g>
    </g>
</svg>